<svg id="94bd1998-4ba7-4a41-8c6f-34b3e69fb1b7" data-name="postive" xmlns="http://www.w3.org/2000/svg" xmlns:xlink="http://www.w3.org/1999/xlink" viewBox="0 0 193.96 55.7">
  <defs>
    <style>
      .\32 59c0745-f745-4f4c-92a4-4b26630bada8 {
        fill: none;
      }

      .c0c242b1-e061-4117-a660-6b66b3e7c681 {
        fill: #2b131b;
      }

      .\31 081effb-194d-4bc5-8442-c4526dab591c {
        fill: #f6a641;
      }

      .\34 9f97ab6-6eef-4119-8b97-1cbea2a27fe5 {
        fill: #f18534;
      }

      .\38 a1afbe0-5029-4eeb-add8-a273fde5e8b4 {
        clip-path: url(#0028cec9-62c8-424c-8256-8a2cf7dfe2df);
      }

      .\30 0bfae82-507c-4807-8497-842ced29c4a6 {
        fill: #fdc461;
      }
    </style>
    <clipPath id="0028cec9-62c8-424c-8256-8a2cf7dfe2df" transform="translate(-201.16 -112.65)">
      <path class="259c0745-f745-4f4c-92a4-4b26630bada8" d="M308.85,137.26c2.06-1,11.46,12,11.38,12.32l-4.47,1.11s1.84,6.07,1.44,6.47a5.73,5.73,0,0,1-1.83.81c-1.49-.79-3.19-5.88-3.19-5.88l-4.47,2.32C307.74,153.31,306.79,138.27,308.85,137.26Z"/>
    </clipPath>
  </defs>
  <title>site_by_pos</title>
  <g>
    <path class="c0c242b1-e061-4117-a660-6b66b3e7c681" d="M205.8,152.78a2.34,2.34,0,0,0-.15-0.69,1.28,1.28,0,0,0-.29-0.44,1.06,1.06,0,0,0-.37-0.23,1.11,1.11,0,0,0-.38-0.07,1,1,0,0,0-.83.33,1.41,1.41,0,0,0-.29.95,1.73,1.73,0,0,0,.33,1,6.18,6.18,0,0,0,.84.94q0.5,0.47,1.1.95a8.7,8.7,0,0,1,1.1,1.05,5.63,5.63,0,0,1,.84,1.27,3.59,3.59,0,0,1,.33,1.57,3.67,3.67,0,0,1-.26,1.43,3,3,0,0,1-.72,1,3,3,0,0,1-1.12.64,4.55,4.55,0,0,1-1.43.22,3.21,3.21,0,0,1-1.39-.29,3,3,0,0,1-1-.78,3.64,3.64,0,0,1-.66-1.14,4.72,4.72,0,0,1-.27-1.39l2.12-.31a2.83,2.83,0,0,0,.43,1.48,1.08,1.08,0,0,0,.9.49,1.4,1.4,0,0,0,.94-0.31,1.09,1.09,0,0,0,.36-0.88,2,2,0,0,0-.33-1.15,5.42,5.42,0,0,0-.84-1q-0.5-.47-1.1-0.94a8.89,8.89,0,0,1-1.1-1,5.16,5.16,0,0,1-.84-1.26,3.78,3.78,0,0,1-.33-1.64,3.12,3.12,0,0,1,.9-2.4,3.61,3.61,0,0,1,2.56-.84,3.06,3.06,0,0,1,1.22.23,2.71,2.71,0,0,1,.93.66,3.46,3.46,0,0,1,.63,1,4.42,4.42,0,0,1,.31,1.26Z" transform="translate(-201.16 -112.65)"/>
    <path class="c0c242b1-e061-4117-a660-6b66b3e7c681" d="M210,162.57v-13h2.23v13H210Z" transform="translate(-201.16 -112.65)"/>
    <path class="c0c242b1-e061-4117-a660-6b66b3e7c681" d="M216,151.52h-2.16v-1.94h6.55v1.94h-2.16v11.05H216V151.52Z" transform="translate(-201.16 -112.65)"/>
    <path class="c0c242b1-e061-4117-a660-6b66b3e7c681" d="M221.73,162.57v-13h6v1.94H224v3.35h2.88v1.94H224v3.82h4v1.94h-6.23Z" transform="translate(-201.16 -112.65)"/>
    <path class="c0c242b1-e061-4117-a660-6b66b3e7c681" d="M233.72,149.57H237a3.46,3.46,0,0,1,2.63.88,3.6,3.6,0,0,1,.83,2.56,4,4,0,0,1-.09.84,3,3,0,0,1-.28.78,2.54,2.54,0,0,1-.49.65,2.16,2.16,0,0,1-.69.45,3,3,0,0,1,1.33,1.1,3.61,3.61,0,0,1,.47,2,5.6,5.6,0,0,1-.19,1.49,3.18,3.18,0,0,1-.6,1.19,2.81,2.81,0,0,1-1.08.79,4.07,4.07,0,0,1-1.62.29h-3.53v-13Zm2.23,5.33h0.81a1.46,1.46,0,0,0,1.06-.42,1.65,1.65,0,0,0,.43-1.23q0-1.84-1.46-1.84h-0.85v3.49Zm0,5.83h0.94a1.44,1.44,0,0,0,1.26-.5,2.56,2.56,0,0,0,.36-1.49,2.31,2.31,0,0,0-.41-1.5,1.77,1.77,0,0,0-1.42-.5h-0.72v4Z" transform="translate(-201.16 -112.65)"/>
    <path class="c0c242b1-e061-4117-a660-6b66b3e7c681" d="M246.75,162.57h-2.23v-5.4l-2.7-7.6h2.27l1.57,5h0l1.49-5h2.27l-2.7,7.6v5.4Z" transform="translate(-201.16 -112.65)"/>
  </g>
  <g>
    <g>
      <path class="c0c242b1-e061-4117-a660-6b66b3e7c681" d="M259.45,124.45c2.06-2.49,7.81-3.75,10.46-1.53a4.61,4.61,0,0,1,1.44,1.7,1.44,1.44,0,0,1,0,1.12,1,1,0,0,1-.64.53,0.47,0.47,0,0,1-.55-0.09,3.74,3.74,0,0,0-1.55-1.58,4.2,4.2,0,0,0-2-.48c-2.19,0-3.44,1.54-3.76,3.54a6.27,6.27,0,0,0,1.58,5.37c1.7,1.71,4.06.77,5.77-.52a3.44,3.44,0,0,1,1.45-1c0.89,0,.28,1.36,0,1.84a6.24,6.24,0,0,1-1,1.4,8,8,0,0,1-5.47,2.51c-5.92.32-9-7.08-6.46-11.9A5,5,0,0,1,259.45,124.45Z" transform="translate(-201.16 -112.65)"/>
      <path class="c0c242b1-e061-4117-a660-6b66b3e7c681" d="M277.75,121.07l-0.13-.61c-0.1-.47-0.2-1-0.31-1.44-0.43-1.88-1.06-4-2.52-5.34a3.09,3.09,0,0,0-.81-0.55,1.28,1.28,0,0,0-.83-0.11,0.78,0.78,0,0,0-.49.84c1.33,5.59,2.21,11.5,3,17,0.1,0.77.14,1.51,0.18,2.23s0.08,1.44.18,2.17a1.26,1.26,0,0,0,1.26.65,0.69,0.69,0,0,0,.54-0.27,5,5,0,0,0,.76-1.85,12.32,12.32,0,0,0,.26-2.52A48.38,48.38,0,0,0,277.75,121.07Z" transform="translate(-201.16 -112.65)"/>
      <path class="c0c242b1-e061-4117-a660-6b66b3e7c681" d="M285.7,126a3.64,3.64,0,0,0,2.78,3.18c1.85,0.57,4-.33,5.58-1.22a17.82,17.82,0,0,0,2-1.51c0.69-.5,1.22.09,1.42,0.79a2.62,2.62,0,0,1-.22,1.59,4.68,4.68,0,0,1-2,2.31,11.53,11.53,0,0,1-6.27,1.41,7.94,7.94,0,0,1-6-2.62c-1.64-2.06-1.75-5.27-1-7.7a8.72,8.72,0,0,1,6.63-6.07,6.71,6.71,0,0,1,4.84,1.21,4.22,4.22,0,0,1,1.5,4.51C294.64,122.55,292.29,125.68,285.7,126Zm6.48-5.83a3.24,3.24,0,0,0-2.07-1c-1.68-.23-4.49,2-4.5,4.07C285.61,123.51,293.57,122.22,292.17,120.13Z" transform="translate(-201.16 -112.65)"/>
      <path class="c0c242b1-e061-4117-a660-6b66b3e7c681" d="M319.31,124.18a3.65,3.65,0,0,0,3,2.93c1.89,0.41,3.92-.67,5.46-1.7a17.53,17.53,0,0,0,1.82-1.67c0.64-.56,1.22,0,1.48.66A2.6,2.6,0,0,1,331,126a4.68,4.68,0,0,1-1.79,2.47,11.56,11.56,0,0,1-6.13,1.95,8,8,0,0,1-6.23-2.09c-1.81-1.91-4.42-12.07,3.7-14.69,5.86-1.89,8,4,7.56,5.63C327.93,120,325.86,123.33,319.31,124.18Zm5.95-6.36a3.23,3.23,0,0,0-2.15-.82c-1.7-.09-4.31,2.38-4.13,4.45C319,121.75,326.84,119.78,325.26,117.82Z" transform="translate(-201.16 -112.65)"/>
      <path class="c0c242b1-e061-4117-a660-6b66b3e7c681" d="M311.29,112.65a1.37,1.37,0,0,1,.87,1.29,10.39,10.39,0,0,1,0,2.55q-0.16,1.46-.47,3c-0.67,3.25-.88,7.14-3.2,9.74a1.64,1.64,0,0,1-.58.42,1.07,1.07,0,0,1-.74,0c-1.69-.55-3.06-2.08-4.22-3.37a27.94,27.94,0,0,1-3.8-5.44c-0.42-.77-3-6.11-0.13-4.5a5.52,5.52,0,0,1,1.31,1.07c1.14,1.22,4.43,6.41,5.37,6.27,1.13-.16,2.43-5.51,2.64-6.38a19.13,19.13,0,0,1,.72-2.34,6.54,6.54,0,0,1,.93-1.71A1.53,1.53,0,0,1,311.29,112.65Z" transform="translate(-201.16 -112.65)"/>
      <path class="c0c242b1-e061-4117-a660-6b66b3e7c681" d="M334.67,127.61a23.11,23.11,0,0,1-.76-3.37,39.57,39.57,0,0,1-.43-4,28.84,28.84,0,0,1,0-3.76,8,8,0,0,1,.57-2.71,1.12,1.12,0,0,1,1.24-.81c0.54,0.1,1.21.73,2,1.91a4.56,4.56,0,0,1,1.24-.91,7.44,7.44,0,0,1,1.58-.6,7,7,0,0,1,1.65-.22,4.19,4.19,0,0,1,1.43.2,5.14,5.14,0,0,1,.78.9,3,3,0,0,1,.3,1.41,0.63,0.63,0,0,1-.49.45l-1,.2a11.08,11.08,0,0,0-1.47.41,7.92,7.92,0,0,0-1.94,1.07,1.87,1.87,0,0,0-.79,1.3,11.11,11.11,0,0,0-.23,2.16c0,0.81,0,1.67,0,2.56s0,1.72,0,2.48a7.08,7.08,0,0,1-.34,1.93,1.16,1.16,0,0,1-.94.88,3.47,3.47,0,0,1-1.43-.25A1.79,1.79,0,0,1,334.67,127.61Z" transform="translate(-201.16 -112.65)"/>
    </g>
    <g>
      <path class="c0c242b1-e061-4117-a660-6b66b3e7c681" d="M285.67,143.52a1.43,1.43,0,0,1-1,.83,7.67,7.67,0,0,1-1.74.21c-1.36,0-5.82-.82-5.89,1.49,0,1.42,2.81,3,3.91,3.58,3.33,1.61,7.43,4.6,8.74,8.19,1.48,4.09-2.28,7.88-5.77,9.5a12.17,12.17,0,0,1-2.49.86c-2.79.62-6.4-.49-7.59-3.3-0.66-1.55-.55-5,1.88-4.56,2.23,0.41,2.62,2.1,5.33,1.85,2.52-.24,4.13-1.53,3.64-4-0.32-1.61-2.19-3-3.42-4-2.75-2.17-5.55-2.87-7.86-5.63a4.17,4.17,0,0,1-.45-5c2.24-4,6.69-4.13,7.94-4.06-0.06,0,0,0,.31.07s0.59,0.11,1,.21a11.14,11.14,0,0,1,1.32.43,4.93,4.93,0,0,1,1.28.71,2.86,2.86,0,0,1,.86,1.08A2.24,2.24,0,0,1,285.67,143.52Z" transform="translate(-201.16 -112.65)"/>
      <path class="c0c242b1-e061-4117-a660-6b66b3e7c681" d="M297.48,149.61c0.11,1.85.28,10.18,9.16,9.13,0.25,0,.49-0.21.82-0.27a1.07,1.07,0,0,1,1,.35,1.84,1.84,0,0,1,.47,1.12,2.17,2.17,0,0,1-.37,1.33,2.48,2.48,0,0,1-1.5,1,22.38,22.38,0,0,1-5.19.48c-9.79.14-9.29-12.92-9.45-12.94a41.25,41.25,0,0,1-4.89-.64,3.52,3.52,0,0,1-1-1.74,1.78,1.78,0,0,1,.13-1.71,2,2,0,0,1,1.35-.59c0.6-.06,3.77.11,4.41,0.1-0.12,0,.38-6.86.56-7.71a1.4,1.4,0,0,1,.46-0.88,1,1,0,0,1,.71-0.16c0.26,0,1.89.36,2,.66a80.66,80.66,0,0,1,1,8.39,9.54,9.54,0,0,0,2.08.25c0.65-.07,1.31-0.12,2-0.15a3.45,3.45,0,0,1,1.76.33,0.69,0.69,0,0,1,.31.56,2.07,2.07,0,0,1-.4,2C302.15,149.45,297.91,149.65,297.48,149.61Z" transform="translate(-201.16 -112.65)"/>
      <path class="c0c242b1-e061-4117-a660-6b66b3e7c681" d="M326.27,156.84a23,23,0,0,1-1.24-3.32,40.76,40.76,0,0,1-1-4,28.89,28.89,0,0,1-.51-3.82,8.26,8.26,0,0,1,.2-2.83,1.15,1.15,0,0,1,1.15-1q0.84,0,2.3,1.66a4.7,4.7,0,0,1,1.14-1.1,7.57,7.57,0,0,1,1.53-.83,7.28,7.28,0,0,1,1.64-.45,4.31,4.31,0,0,1,1.48,0,5.28,5.28,0,0,1,.92.8,3,3,0,0,1,.49,1.39,0.64,0.64,0,0,1-.43.53l-1,.34a11.67,11.67,0,0,0-1.44.63,8,8,0,0,0-1.82,1.35,1.92,1.92,0,0,0-.63,1.43,11.91,11.91,0,0,0,.06,2.23c0.1,0.83.22,1.7,0.37,2.6s0.26,1.74.32,2.52a7.34,7.34,0,0,1-.07,2,1.19,1.19,0,0,1-.83,1,3.57,3.57,0,0,1-1.49-.06A1.83,1.83,0,0,1,326.27,156.84Z" transform="translate(-201.16 -112.65)"/>
      <path class="c0c242b1-e061-4117-a660-6b66b3e7c681" d="M356.71,132.6a1.59,1.59,0,0,1,.78-0.19c2.43,0,3.8,4.12,1.07,4.32a2.2,2.2,0,0,1-1.92-.52C355.89,135.34,355.6,133.25,356.71,132.6Zm1,22.63a1,1,0,0,1-.86,0,5.26,5.26,0,0,1-1.06-.51,25.92,25.92,0,0,1-.38-4c0-1.48,0-2.89.07-4.22a29.17,29.17,0,0,1,.4-3.45,2.62,2.62,0,0,1,.68-1.67,1.28,1.28,0,0,1,1.61.4,5.93,5.93,0,0,1,1.1,2.27,16,16,0,0,1,.53,3.29,19.38,19.38,0,0,1-.08,3.51,10.85,10.85,0,0,1-.7,2.9A2.28,2.28,0,0,1,357.76,155.23Z" transform="translate(-201.16 -112.65)"/>
      <path class="c0c242b1-e061-4117-a660-6b66b3e7c681" d="M369.82,133.88a8.84,8.84,0,0,1,2.07.72,4,4,0,0,1,1,.69,1.82,1.82,0,0,1,.55,1.06,1.45,1.45,0,0,1-.12,1,1.1,1.1,0,0,1-.64.5,5.23,5.23,0,0,1-1,.2,1.75,1.75,0,0,1-1.14-.28,6.6,6.6,0,0,0-3.59-1.17c-3.5.51,1.44,4.43,2.48,5.08,2.71,1.68,6.31,3.31,6.36,7a6,6,0,0,1-.9,2.95,4.21,4.21,0,0,1-1.7,1.73c-2.77,1.45-8,1-10.2-1.43a2.31,2.31,0,0,1,.13-3.3c1.82-1.56,8.28,2.81,9,.37a1.59,1.59,0,0,0-.48-1.25,10.46,10.46,0,0,0-2.2-1.93,13.21,13.21,0,0,1-5.39-4.49q-1.51-2.48-1-4.26a4.33,4.33,0,0,1,2.22-2.67A6.59,6.59,0,0,1,369.82,133.88Z" transform="translate(-201.16 -112.65)"/>
      <path class="c0c242b1-e061-4117-a660-6b66b3e7c681" d="M378.78,120.53c0.63,0.1,2.11.45,2.34,1.59,1.07,5.4.9,9.44,1.23,14.11q0.16,2.24.36,3.67t0.59,1.28a1.31,1.31,0,0,0,1.06-.62c1.57-2,3.51-3.49,6.14-3.32,5.4,0.34,4.57,6.32,4.58,10.19a19.73,19.73,0,0,1-.4,4.19,1,1,0,0,1-.34.71,1.56,1.56,0,0,1-.8.39,2.69,2.69,0,0,1-1.06,0,2.38,2.38,0,0,1-1.09-.57,4.12,4.12,0,0,1-.48-1.67,13.39,13.39,0,0,1,0-2.19c0-.78.1-1.55,0.18-2.32a18.33,18.33,0,0,0,.08-2.12c-0.07-2.62-3-2.4-4.52-1.32-2.24,1.54-2.88,4.55-3.69,7a3.2,3.2,0,0,1-.87,1.4,2.39,2.39,0,0,1-1.82.51,3.37,3.37,0,0,1-1.43-1.13,13.29,13.29,0,0,1-.63-3.47q-0.23-2.49-.33-5.65t-0.11-6.59c0-2.3,0-4.43.13-6.41s0.21-3.67.37-5.06A7,7,0,0,1,378.78,120.53Z" transform="translate(-201.16 -112.65)"/>
      <path class="c0c242b1-e061-4117-a660-6b66b3e7c681" d="M353.31,129.15a2.48,2.48,0,0,0-1.69-.59,22.34,22.34,0,0,0-5.16.74c-9.55,2.14-6,14.72-6.18,14.78a40.93,40.93,0,0,0-4.6,1.76,3.52,3.52,0,0,0-.52,1.92,1.79,1.79,0,0,0,.53,1.63,2,2,0,0,0,1.45.26c0.59-.08,3.64-1,4.27-1.12,0,0,1.06,4.26,1.36,5.24A35.81,35.81,0,0,0,344,157.3a2.64,2.64,0,0,0,1.27,1.64,5,5,0,0,0,1,.52,1.6,1.6,0,0,0,.89.08,1.1,1.1,0,0,0,.68-0.49,3.45,3.45,0,0,0,.45-1.16,9.15,9.15,0,0,0-.38-1.75c-0.2-.69-1.7-7.24-2-8.69,0.53-.08,1-0.16,1.6-0.26,0.85-.15,1.67-0.32,2.45-0.51a7,7,0,0,0,2-.79,2.57,2.57,0,0,0,1.27-1.23,2.69,2.69,0,0,0,.34-1.6,1.13,1.13,0,0,0-.87-1c-0.22-.07-7.19.88-7.51,1-0.33-1.82-2.1-10,6.79-11,0.25,0,.53.09,0.86,0.07a1.07,1.07,0,0,0,.92-0.58,1.84,1.84,0,0,0,.19-1.2A2.15,2.15,0,0,0,353.31,129.15Z" transform="translate(-201.16 -112.65)"/>
    </g>
    <g>
      <path class="1081effb-194d-4bc5-8442-c4526dab591c" d="M308.85,137.26c2.06-1,11.46,12,11.38,12.32l-4.47,1.11s1.84,6.07,1.44,6.47a5.73,5.73,0,0,1-1.83.81c-1.49-.79-3.19-5.88-3.19-5.88l-4.47,2.32C307.74,153.31,306.79,138.27,308.85,137.26Z" transform="translate(-201.16 -112.65)"/>
      <path class="49f97ab6-6eef-4119-8b97-1cbea2a27fe5" d="M309.91,148.07a0.36,0.36,0,0,1,.59.22C310.78,149.19,309.24,148.64,309.91,148.07Z" transform="translate(-201.16 -112.65)"/>
      <path class="49f97ab6-6eef-4119-8b97-1cbea2a27fe5" d="M315.38,154.65a0.17,0.17,0,0,1,.29.11C315.8,155.19,315,154.92,315.38,154.65Z" transform="translate(-201.16 -112.65)"/>
      <path class="49f97ab6-6eef-4119-8b97-1cbea2a27fe5" d="M315.28,153.62a0.23,0.23,0,0,1,.39.14C315.85,154.34,314.85,154,315.28,153.62Z" transform="translate(-201.16 -112.65)"/>
      <path class="49f97ab6-6eef-4119-8b97-1cbea2a27fe5" d="M312.43,143.36a0.29,0.29,0,0,1,.48.18C313.13,144.28,311.88,143.83,312.43,143.36Z" transform="translate(-201.16 -112.65)"/>
      <path class="49f97ab6-6eef-4119-8b97-1cbea2a27fe5" d="M311.34,148.76a0.67,0.67,0,0,1,.91.79c-0.27.54-1.06,0.13-1.09-.36A0.45,0.45,0,0,1,311.34,148.76Z" transform="translate(-201.16 -112.65)"/>
      <path class="49f97ab6-6eef-4119-8b97-1cbea2a27fe5" d="M309.91,148.07a0.36,0.36,0,0,1,.59.22C310.78,149.19,309.24,148.64,309.91,148.07Z" transform="translate(-201.16 -112.65)"/>
      <path class="49f97ab6-6eef-4119-8b97-1cbea2a27fe5" d="M315.38,154.65a0.17,0.17,0,0,1,.29.11C315.8,155.19,315,154.92,315.38,154.65Z" transform="translate(-201.16 -112.65)"/>
      <path class="49f97ab6-6eef-4119-8b97-1cbea2a27fe5" d="M315.28,153.62a0.23,0.23,0,0,1,.39.14C315.85,154.34,314.85,154,315.28,153.62Z" transform="translate(-201.16 -112.65)"/>
      <path class="49f97ab6-6eef-4119-8b97-1cbea2a27fe5" d="M312.43,143.36a0.29,0.29,0,0,1,.48.18C313.13,144.28,311.88,143.83,312.43,143.36Z" transform="translate(-201.16 -112.65)"/>
      <path class="49f97ab6-6eef-4119-8b97-1cbea2a27fe5" d="M311.34,148.76a0.67,0.67,0,0,1,.91.79c-0.27.54-1.06,0.13-1.09-.36A0.45,0.45,0,0,1,311.34,148.76Z" transform="translate(-201.16 -112.65)"/>
      <g>
        <g class="8a1afbe0-5029-4eeb-add8-a273fde5e8b4">
          <path class="49f97ab6-6eef-4119-8b97-1cbea2a27fe5" d="M321.79,147.57c-1,0-6.11,2.85-6.11,2.85l0.7,1.94,6.18-2.62S322.74,147.57,321.79,147.57Z" transform="translate(-201.16 -112.65)"/>
        </g>
        <g class="8a1afbe0-5029-4eeb-add8-a273fde5e8b4">
          <path class="49f97ab6-6eef-4119-8b97-1cbea2a27fe5" d="M307.39,150.2c0.35-.31.2,1.28,1.36,1.71s3.72-.28,3.72-0.28,2.56,5.85,4.63,5.2c1.38-.43-3.46,3.42-3.46,3.42l-1.35-2.46-5.85-2.31S306.69,150.84,307.39,150.2Z" transform="translate(-201.16 -112.65)"/>
        </g>
        <g class="8a1afbe0-5029-4eeb-add8-a273fde5e8b4">
          <path class="00bfae82-507c-4807-8497-842ced29c4a6" d="M307.37,146.21s0.48-5.66,2.29-6.63,6.37,1,6.37,1l-6.37-4.79h-2.22l-0.63,2Z" transform="translate(-201.16 -112.65)"/>
        </g>
      </g>
    </g>
  </g>
</svg>
